[09:23:55 INF] HTTP Request: GET /api/forklifts/all | Body: 
[09:23:56 INF] HTTP Response: 200 | Body: {"success":true,"data":[{"id":1,"name":"Titan Lifter","modelNumber":"XA123","manufacturingDate":"2015-05-12T00:00:00","age":10},{"id":2,"name":"Zephyr Mover","modelNumber":"YB456","manufacturingDate":"2018-07-23T00:00:00","age":6},{"id":3,"name":"Atlas Hauler","modelNumber":"ZC789","manufacturingDate":"2012-10-10T00:00:00","age":12},{"id":4,"name":"Cyclone Loader","modelNumber":"WD321","manufacturingDate":"2020-01-15T00:00:00","age":5},{"id":5,"name":"Phoenix Shifter","modelNumber":"VE654","manufacturingDate":"2017-03-30T00:00:00","age":8}],"error":null}
[09:23:56 INF] HTTP Request: GET /api/forklifts/all | Body: 
[09:23:56 INF] HTTP GET /api/forklifts/all responded 200 in 789.4005 ms
[09:23:56 INF] HTTP Response: 200 | Body: {"success":true,"data":[{"id":1,"name":"Titan Lifter","modelNumber":"XA123","manufacturingDate":"2015-05-12T00:00:00","age":10},{"id":2,"name":"Zephyr Mover","modelNumber":"YB456","manufacturingDate":"2018-07-23T00:00:00","age":6},{"id":3,"name":"Atlas Hauler","modelNumber":"ZC789","manufacturingDate":"2012-10-10T00:00:00","age":12},{"id":4,"name":"Cyclone Loader","modelNumber":"WD321","manufacturingDate":"2020-01-15T00:00:00","age":5},{"id":5,"name":"Phoenix Shifter","modelNumber":"VE654","manufacturingDate":"2017-03-30T00:00:00","age":8}],"error":null}
[09:23:56 INF] HTTP GET /api/forklifts/all responded 200 in 54.4417 ms
[09:24:11 INF] HTTP Request: GET /api/forklifts/all | Body: 
[09:24:11 INF] HTTP Response: 200 | Body: {"success":true,"data":[{"id":1,"name":"Titan Lifter","modelNumber":"XA123","manufacturingDate":"2015-05-12T00:00:00","age":10},{"id":2,"name":"Zephyr Mover","modelNumber":"YB456","manufacturingDate":"2018-07-23T00:00:00","age":6},{"id":3,"name":"Atlas Hauler","modelNumber":"ZC789","manufacturingDate":"2012-10-10T00:00:00","age":12},{"id":4,"name":"Cyclone Loader","modelNumber":"WD321","manufacturingDate":"2020-01-15T00:00:00","age":5},{"id":5,"name":"Phoenix Shifter","modelNumber":"VE654","manufacturingDate":"2017-03-30T00:00:00","age":8}],"error":null}
[09:24:11 INF] HTTP GET /api/forklifts/all responded 200 in 36.5392 ms
[09:24:11 INF] HTTP Request: GET /api/forklifts/all | Body: 
[09:24:11 INF] HTTP Response: 200 | Body: {"success":true,"data":[{"id":1,"name":"Titan Lifter","modelNumber":"XA123","manufacturingDate":"2015-05-12T00:00:00","age":10},{"id":2,"name":"Zephyr Mover","modelNumber":"YB456","manufacturingDate":"2018-07-23T00:00:00","age":6},{"id":3,"name":"Atlas Hauler","modelNumber":"ZC789","manufacturingDate":"2012-10-10T00:00:00","age":12},{"id":4,"name":"Cyclone Loader","modelNumber":"WD321","manufacturingDate":"2020-01-15T00:00:00","age":5},{"id":5,"name":"Phoenix Shifter","modelNumber":"VE654","manufacturingDate":"2017-03-30T00:00:00","age":8}],"error":null}
[09:24:11 INF] HTTP GET /api/forklifts/all responded 200 in 27.4279 ms
[09:24:17 INF] HTTP Request: POST /api/commands/track | Body: {"command":"F10R90F5L90B2L90","forkliftId":2}
[09:24:17 INF] HTTP Response: 200 | Body: {"success":true,"data":{"actions":["Move Forward by 10 metres","Turn Right by 90 degrees","Move Forward by 5 metres","Turn Left by 90 degrees","Move Backward by 2 metres","Turn Left by 90 degrees"],"finalX":5,"finalY":8,"finalOrientation":"West"},"error":null}
[09:24:17 INF] HTTP POST /api/commands/track responded 200 in 46.4526 ms
[09:24:27 INF] HTTP Request: POST /api/commands/trackwithobstacles | Body: {"command":"F10R90F5L90B2L90","obstacles":[]}
[09:24:27 INF] HTTP Response: 200 | Body: {"success":true,"data":{"actions":["Move Forward by 10 metres","Turn Right by 90 degrees","Move Forward by 5 metres","Turn Left by 90 degrees","Move Backward by 2 metres","Turn Left by 90 degrees"],"finalX":5,"finalY":8,"finalOrientation":"West"},"error":null}
[09:24:27 INF] HTTP POST /api/commands/trackwithobstacles responded 200 in 27.0442 ms
[09:24:43 INF] HTTP Request: POST /api/commands/trackwithobstacles | Body: {"command":"F10R90F5L90B2L90","obstacles":[{"x":2,"y":5},{"x":3,"y":1}]}
[09:24:43 INF] HTTP Response: 200 | Body: {"success":true,"data":{"actions":["Move Forward by 10 metres","Turn Right by 90 degrees","Move Forward by 5 metres","Turn Left by 90 degrees","Move Backward by 2 metres","Turn Left by 90 degrees"],"finalX":5,"finalY":8,"finalOrientation":"West"},"error":null}
[09:24:43 INF] HTTP POST /api/commands/trackwithobstacles responded 200 in 22.5814 ms
[09:25:00 INF] HTTP Request: POST /api/commands/trackwithobstacles | Body: {"command":"F10R90F5L90B2L90","obstacles":[{"x":2,"y":5},{"x":3,"y":1}]}
[09:25:00 INF] HTTP Response: 200 | Body: {"success":true,"data":{"actions":["Move Forward by 10 metres","Turn Right by 90 degrees","Move Forward by 5 metres","Turn Left by 90 degrees","Move Backward by 2 metres","Turn Left by 90 degrees"],"finalX":5,"finalY":8,"finalOrientation":"West"},"error":null}
[09:25:00 INF] HTTP POST /api/commands/trackwithobstacles responded 200 in 19.8198 ms
[09:25:55 INF] HTTP Request: POST /api/commands/trackwithobstacles | Body: {"command":"F10R90F5L90B2L90","obstacles":[{"x":2,"y":5},{"x":3,"y":1}]}
[09:25:55 INF] HTTP Response: 200 | Body: {"success":true,"data":{"actions":["Move Forward by 10 metres","Turn Right by 90 degrees","Move Forward by 5 metres","Turn Left by 90 degrees","Move Backward by 2 metres","Turn Left by 90 degrees"],"finalX":5,"finalY":8,"finalOrientation":"West"},"error":null}
[09:25:55 INF] HTTP POST /api/commands/trackwithobstacles responded 200 in 21.3124 ms
[09:26:07 INF] HTTP Request: POST /api/commands/trackwithobstacles | Body: {"command":"F10R90F5L90B2L90","obstacles":[{"x":2,"y":5},{"x":3,"y":1}]}
[09:26:07 INF] HTTP Response: 200 | Body: {"success":true,"data":{"actions":["Move Forward by 10 metres","Turn Right by 90 degrees","Move Forward by 5 metres","Turn Left by 90 degrees","Move Backward by 2 metres","Turn Left by 90 degrees"],"finalX":5,"finalY":8,"finalOrientation":"West"},"error":null}
[09:26:07 INF] HTTP POST /api/commands/trackwithobstacles responded 200 in 21.8347 ms
[09:45:56 INF] HTTP Request: POST /api/commands/trackwithobstacles | Body: {"command":"F10R90F5L90B2L90","obstacles":[]}
[09:45:56 INF] HTTP Response: 200 | Body: {"success":true,"data":{"actions":["Move Forward by 10 metres","Turn Right by 90 degrees","Move Forward by 5 metres","Turn Left by 90 degrees","Move Backward by 2 metres","Turn Left by 90 degrees"],"finalX":5,"finalY":8,"finalOrientation":"West"},"error":null}
[09:45:56 INF] HTTP POST /api/commands/trackwithobstacles responded 200 in 14.4152 ms
[09:46:05 INF] HTTP Request: POST /api/commands/trackwithobstacles | Body: {"command":"F10R90F5L90B2L90","obstacles":[{"x":3,"y":4}]}
[09:46:05 INF] HTTP Response: 200 | Body: {"success":true,"data":{"actions":["Move Forward by 10 metres","Turn Right by 90 degrees","Move Forward by 5 metres","Turn Left by 90 degrees","Move Backward by 2 metres","Turn Left by 90 degrees"],"finalX":5,"finalY":8,"finalOrientation":"West"},"error":null}
[09:46:05 INF] HTTP POST /api/commands/trackwithobstacles responded 200 in 14.1137 ms
[09:46:30 INF] HTTP Request: POST /api/commands/trackwithobstacles | Body: {"command":"F10R90F5L90B2L90","obstacles":[{"x":5,"y":9}]}
[09:46:30 INF] HTTP Response: 200 | Body: {"success":true,"data":{"actions":["Move Forward by 10 metres","Turn Right by 90 degrees","Move Forward by 5 metres","Turn Left by 90 degrees","Move Backward by 2 metres","Obstacle encountered at (5, 9). Movement stopped."],"finalX":5,"finalY":10,"finalOrientation":"North"},"error":null}
[09:46:30 INF] HTTP POST /api/commands/trackwithobstacles responded 200 in 11.3785 ms
[09:57:17 INF] HTTP Request: POST /api/commands/trackwithobstacles | Body: {"command":"F10R90F5L90B2L80","obstacles":[{"x":5,"y":9}]}
[09:57:17 INF] HTTP Response: 400 | Body: {"success":false,"data":null,"error":{"message":"Invalid degree value after 'L': must be a multiple of 90"}}
[09:57:17 INF] HTTP POST /api/commands/trackwithobstacles responded 400 in 54.3740 ms
[09:57:23 INF] HTTP Request: POST /api/commands/trackwithobstacles | Body: {"command":"F10R90F5L90B2L80","obstacles":[{"x":5,"y":9}]}
[09:57:23 INF] HTTP Response: 400 | Body: {"success":false,"data":null,"error":{"message":"Invalid degree value after 'L': must be a multiple of 90"}}
[09:57:23 INF] HTTP POST /api/commands/trackwithobstacles responded 400 in 35.0717 ms
[09:57:29 INF] HTTP Request: GET /api/forklifts/all | Body: 
[09:57:29 INF] HTTP Response: 200 | Body: {"success":true,"data":[{"id":1,"name":"Titan Lifter","modelNumber":"XA123","manufacturingDate":"2015-05-12T00:00:00","age":10},{"id":2,"name":"Zephyr Mover","modelNumber":"YB456","manufacturingDate":"2018-07-23T00:00:00","age":6},{"id":3,"name":"Atlas Hauler","modelNumber":"ZC789","manufacturingDate":"2012-10-10T00:00:00","age":12},{"id":4,"name":"Cyclone Loader","modelNumber":"WD321","manufacturingDate":"2020-01-15T00:00:00","age":5},{"id":5,"name":"Phoenix Shifter","modelNumber":"VE654","manufacturingDate":"2017-03-30T00:00:00","age":8}],"error":null}
[09:57:29 INF] HTTP GET /api/forklifts/all responded 200 in 50.8809 ms
[09:57:29 INF] HTTP Request: GET /api/forklifts/all | Body: 
[09:57:29 INF] HTTP Response: 200 | Body: {"success":true,"data":[{"id":1,"name":"Titan Lifter","modelNumber":"XA123","manufacturingDate":"2015-05-12T00:00:00","age":10},{"id":2,"name":"Zephyr Mover","modelNumber":"YB456","manufacturingDate":"2018-07-23T00:00:00","age":6},{"id":3,"name":"Atlas Hauler","modelNumber":"ZC789","manufacturingDate":"2012-10-10T00:00:00","age":12},{"id":4,"name":"Cyclone Loader","modelNumber":"WD321","manufacturingDate":"2020-01-15T00:00:00","age":5},{"id":5,"name":"Phoenix Shifter","modelNumber":"VE654","manufacturingDate":"2017-03-30T00:00:00","age":8}],"error":null}
[09:57:29 INF] HTTP GET /api/forklifts/all responded 200 in 25.0252 ms
[09:57:34 INF] HTTP Request: POST /api/commands/track | Body: {"command":"F10R90F5L90B2L90","forkliftId":3}
[09:57:34 INF] HTTP Response: 200 | Body: {"success":true,"data":{"actions":["Move Forward by 10 metres","Turn Right by 90 degrees","Move Forward by 5 metres","Turn Left by 90 degrees","Move Backward by 2 metres","Turn Left by 90 degrees"],"finalX":5,"finalY":8,"finalOrientation":"West"},"error":null}
[09:57:34 INF] HTTP POST /api/commands/track responded 200 in 19.6378 ms
[13:40:34 INF] HTTP Request: GET /api/forklifts/all | Body: 
[13:40:35 INF] HTTP Response: 200 | Body: {"success":true,"data":[{"id":1,"name":"Titan Lifter","modelNumber":"XA123","manufacturingDate":"2015-05-12T00:00:00","age":10},{"id":2,"name":"Zephyr Mover","modelNumber":"YB456","manufacturingDate":"2018-07-23T00:00:00","age":6},{"id":3,"name":"Atlas Hauler","modelNumber":"ZC789","manufacturingDate":"2012-10-10T00:00:00","age":12},{"id":4,"name":"Cyclone Loader","modelNumber":"WD321","manufacturingDate":"2020-01-15T00:00:00","age":5},{"id":5,"name":"Phoenix Shifter","modelNumber":"VE654","manufacturingDate":"2017-03-30T00:00:00","age":8}],"error":null}
[13:40:35 INF] HTTP GET /api/forklifts/all responded 200 in 513.8256 ms
[13:40:35 INF] HTTP Request: GET /api/forklifts/all | Body: 
[13:40:35 INF] HTTP Response: 200 | Body: {"success":true,"data":[{"id":1,"name":"Titan Lifter","modelNumber":"XA123","manufacturingDate":"2015-05-12T00:00:00","age":10},{"id":2,"name":"Zephyr Mover","modelNumber":"YB456","manufacturingDate":"2018-07-23T00:00:00","age":6},{"id":3,"name":"Atlas Hauler","modelNumber":"ZC789","manufacturingDate":"2012-10-10T00:00:00","age":12},{"id":4,"name":"Cyclone Loader","modelNumber":"WD321","manufacturingDate":"2020-01-15T00:00:00","age":5},{"id":5,"name":"Phoenix Shifter","modelNumber":"VE654","manufacturingDate":"2017-03-30T00:00:00","age":8}],"error":null}
[13:40:35 INF] HTTP GET /api/forklifts/all responded 200 in 37.8929 ms
[13:40:39 INF] HTTP Request: OPTIONS /api/commands/parse | Body: 
[13:40:39 INF] HTTP Response: 204 | Body: 
[13:40:39 INF] HTTP OPTIONS /api/commands/parse responded 204 in 1.2446 ms
[13:40:39 INF] HTTP Request: POST /api/commands/parse | Body: {"command":"F10R90L90B6","forkliftId":1}
[13:40:48 INF] HTTP Response: 200 | Body: {"success":true,"data":["Move Forward by 10 metres","Turn Right by 90 degrees","Turn Left by 90 degrees","Move Backward by 6 metres"],"error":null}
[13:40:48 INF] HTTP POST /api/commands/parse responded 200 in 8525.0955 ms
[13:40:54 INF] HTTP Request: OPTIONS /api/commands/parse | Body: 
[13:40:54 INF] HTTP Response: 204 | Body: 
[13:40:54 INF] HTTP OPTIONS /api/commands/parse responded 204 in 0.5252 ms
[13:40:54 INF] HTTP Request: POST /api/commands/parse | Body: {"command":"F10R90L90B6","forkliftId":3}
[13:40:58 INF] HTTP Response: 200 | Body: {"success":true,"data":["Move Forward by 10 metres","Turn Right by 90 degrees","Turn Left by 90 degrees","Move Backward by 6 metres"],"error":null}
[13:40:58 INF] HTTP POST /api/commands/parse responded 200 in 4246.4061 ms
[13:41:01 INF] HTTP Request: GET /api/forklifts/all | Body: 
[13:41:01 INF] HTTP Response: 200 | Body: {"success":true,"data":[{"id":1,"name":"Titan Lifter","modelNumber":"XA123","manufacturingDate":"2015-05-12T00:00:00","age":10},{"id":2,"name":"Zephyr Mover","modelNumber":"YB456","manufacturingDate":"2018-07-23T00:00:00","age":6},{"id":3,"name":"Atlas Hauler","modelNumber":"ZC789","manufacturingDate":"2012-10-10T00:00:00","age":12},{"id":4,"name":"Cyclone Loader","modelNumber":"WD321","manufacturingDate":"2020-01-15T00:00:00","age":5},{"id":5,"name":"Phoenix Shifter","modelNumber":"VE654","manufacturingDate":"2017-03-30T00:00:00","age":8}],"error":null}
[13:41:01 INF] HTTP GET /api/forklifts/all responded 200 in 46.7767 ms
[13:41:01 INF] HTTP Request: GET /api/forklifts/all | Body: 
[13:41:01 INF] HTTP Response: 200 | Body: {"success":true,"data":[{"id":1,"name":"Titan Lifter","modelNumber":"XA123","manufacturingDate":"2015-05-12T00:00:00","age":10},{"id":2,"name":"Zephyr Mover","modelNumber":"YB456","manufacturingDate":"2018-07-23T00:00:00","age":6},{"id":3,"name":"Atlas Hauler","modelNumber":"ZC789","manufacturingDate":"2012-10-10T00:00:00","age":12},{"id":4,"name":"Cyclone Loader","modelNumber":"WD321","manufacturingDate":"2020-01-15T00:00:00","age":5},{"id":5,"name":"Phoenix Shifter","modelNumber":"VE654","manufacturingDate":"2017-03-30T00:00:00","age":8}],"error":null}
[13:41:01 INF] HTTP GET /api/forklifts/all responded 200 in 34.4678 ms
[13:41:05 INF] HTTP Request: OPTIONS /api/commands/track | Body: 
[13:41:05 INF] HTTP Response: 204 | Body: 
[13:41:05 INF] HTTP OPTIONS /api/commands/track responded 204 in 0.4649 ms
[13:41:05 INF] HTTP Request: POST /api/commands/track | Body: {"command":"F10R90F5L90B2L90","forkliftId":2}
[13:41:05 INF] HTTP Response: 200 | Body: {"success":true,"data":{"actions":["Move Forward by 10 metres","Turn Right by 90 degrees","Move Forward by 5 metres","Turn Left by 90 degrees","Move Backward by 2 metres","Turn Left by 90 degrees"],"finalX":5,"finalY":8,"finalOrientation":"West"},"error":null}
[13:41:05 INF] HTTP POST /api/commands/track responded 200 in 16.1507 ms
[13:41:16 INF] HTTP Request: OPTIONS /api/commands/track | Body: 
[13:41:16 INF] HTTP Response: 204 | Body: 
[13:41:16 INF] HTTP OPTIONS /api/commands/track responded 204 in 0.6276 ms
[13:41:16 INF] HTTP Request: POST /api/commands/track | Body: {"command":"F10R90F5L90B2L90","forkliftId":2}
[13:41:21 INF] HTTP Response: 200 | Body: {"success":true,"data":{"actions":["Move Forward by 10 metres","Turn Right by 90 degrees","Move Forward by 5 metres","Turn Left by 90 degrees","Move Backward by 2 metres","Turn Left by 90 degrees"],"finalX":5,"finalY":8,"finalOrientation":"West"},"error":null}
[13:41:21 INF] HTTP POST /api/commands/track responded 200 in 4795.6455 ms
[13:41:35 INF] HTTP Request: GET /api/forklifts/all | Body: 
[13:41:35 INF] HTTP Response: 200 | Body: {"success":true,"data":[{"id":1,"name":"Titan Lifter","modelNumber":"XA123","manufacturingDate":"2015-05-12T00:00:00","age":10},{"id":2,"name":"Zephyr Mover","modelNumber":"YB456","manufacturingDate":"2018-07-23T00:00:00","age":6},{"id":3,"name":"Atlas Hauler","modelNumber":"ZC789","manufacturingDate":"2012-10-10T00:00:00","age":12},{"id":4,"name":"Cyclone Loader","modelNumber":"WD321","manufacturingDate":"2020-01-15T00:00:00","age":5},{"id":5,"name":"Phoenix Shifter","modelNumber":"VE654","manufacturingDate":"2017-03-30T00:00:00","age":8}],"error":null}
[13:41:35 INF] HTTP GET /api/forklifts/all responded 200 in 25.0177 ms
[13:41:35 INF] HTTP Request: GET /api/forklifts/all | Body: 
[13:41:35 INF] HTTP Response: 200 | Body: {"success":true,"data":[{"id":1,"name":"Titan Lifter","modelNumber":"XA123","manufacturingDate":"2015-05-12T00:00:00","age":10},{"id":2,"name":"Zephyr Mover","modelNumber":"YB456","manufacturingDate":"2018-07-23T00:00:00","age":6},{"id":3,"name":"Atlas Hauler","modelNumber":"ZC789","manufacturingDate":"2012-10-10T00:00:00","age":12},{"id":4,"name":"Cyclone Loader","modelNumber":"WD321","manufacturingDate":"2020-01-15T00:00:00","age":5},{"id":5,"name":"Phoenix Shifter","modelNumber":"VE654","manufacturingDate":"2017-03-30T00:00:00","age":8}],"error":null}
[13:41:35 INF] HTTP GET /api/forklifts/all responded 200 in 18.0440 ms
[13:41:46 INF] HTTP Request: OPTIONS /api/commands/trackwithobstacles | Body: 
[13:41:46 INF] HTTP Response: 204 | Body: 
[13:41:46 INF] HTTP OPTIONS /api/commands/trackwithobstacles responded 204 in 0.4332 ms
[13:41:46 INF] HTTP Request: POST /api/commands/trackwithobstacles | Body: {"command":"F10R90F5L90B2L90","obstacles":[]}
[13:41:53 INF] HTTP Response: 200 | Body: {"success":true,"data":{"actions":["Move Forward by 10 metres","Turn Right by 90 degrees","Move Forward by 5 metres","Turn Left by 90 degrees","Move Backward by 2 metres","Turn Left by 90 degrees"],"finalX":5,"finalY":8,"finalOrientation":"West"},"error":null}
[13:41:53 INF] HTTP POST /api/commands/trackwithobstacles responded 200 in 7091.4048 ms
[13:42:06 INF] HTTP Request: OPTIONS /api/commands/trackwithobstacles | Body: 
[13:42:06 INF] HTTP Response: 204 | Body: 
[13:42:06 INF] HTTP OPTIONS /api/commands/trackwithobstacles responded 204 in 0.4082 ms
[13:42:06 INF] HTTP Request: POST /api/commands/trackwithobstacles | Body: {"command":"F10R90F5L90B2L90","obstacles":[{"x":3,"y":1},{"x":2,"y":1}]}
[13:42:16 INF] HTTP Response: 200 | Body: {"success":true,"data":{"actions":["Move Forward by 10 metres","Turn Right by 90 degrees","Move Forward by 5 metres","Turn Left by 90 degrees","Move Backward by 2 metres","Turn Left by 90 degrees"],"finalX":5,"finalY":8,"finalOrientation":"West"},"error":null}
[13:42:16 INF] HTTP POST /api/commands/trackwithobstacles responded 200 in 10042.2347 ms
[13:42:54 INF] HTTP Request: GET /api/forklifts/all | Body: 
[13:42:54 INF] HTTP Response: 200 | Body: {"success":true,"data":[{"id":1,"name":"Titan Lifter","modelNumber":"XA123","manufacturingDate":"2015-05-12T00:00:00","age":10},{"id":2,"name":"Zephyr Mover","modelNumber":"YB456","manufacturingDate":"2018-07-23T00:00:00","age":6},{"id":3,"name":"Atlas Hauler","modelNumber":"ZC789","manufacturingDate":"2012-10-10T00:00:00","age":12},{"id":4,"name":"Cyclone Loader","modelNumber":"WD321","manufacturingDate":"2020-01-15T00:00:00","age":5},{"id":5,"name":"Phoenix Shifter","modelNumber":"VE654","manufacturingDate":"2017-03-30T00:00:00","age":8}],"error":null}
[13:42:54 INF] HTTP GET /api/forklifts/all responded 200 in 70.0672 ms
[13:42:54 INF] HTTP Request: GET /api/forklifts/all | Body: 
[13:42:54 INF] HTTP Response: 200 | Body: {"success":true,"data":[{"id":1,"name":"Titan Lifter","modelNumber":"XA123","manufacturingDate":"2015-05-12T00:00:00","age":10},{"id":2,"name":"Zephyr Mover","modelNumber":"YB456","manufacturingDate":"2018-07-23T00:00:00","age":6},{"id":3,"name":"Atlas Hauler","modelNumber":"ZC789","manufacturingDate":"2012-10-10T00:00:00","age":12},{"id":4,"name":"Cyclone Loader","modelNumber":"WD321","manufacturingDate":"2020-01-15T00:00:00","age":5},{"id":5,"name":"Phoenix Shifter","modelNumber":"VE654","manufacturingDate":"2017-03-30T00:00:00","age":8}],"error":null}
[13:42:54 INF] HTTP GET /api/forklifts/all responded 200 in 23.2506 ms
[13:42:55 INF] HTTP Request: GET /api/forklifts/all | Body: 
[13:42:55 INF] HTTP Response: 200 | Body: {"success":true,"data":[{"id":1,"name":"Titan Lifter","modelNumber":"XA123","manufacturingDate":"2015-05-12T00:00:00","age":10},{"id":2,"name":"Zephyr Mover","modelNumber":"YB456","manufacturingDate":"2018-07-23T00:00:00","age":6},{"id":3,"name":"Atlas Hauler","modelNumber":"ZC789","manufacturingDate":"2012-10-10T00:00:00","age":12},{"id":4,"name":"Cyclone Loader","modelNumber":"WD321","manufacturingDate":"2020-01-15T00:00:00","age":5},{"id":5,"name":"Phoenix Shifter","modelNumber":"VE654","manufacturingDate":"2017-03-30T00:00:00","age":8}],"error":null}
[13:42:55 INF] HTTP GET /api/forklifts/all responded 200 in 32.4360 ms
[13:42:55 INF] HTTP Request: GET /api/forklifts/all | Body: 
[13:42:55 INF] HTTP Response: 200 | Body: {"success":true,"data":[{"id":1,"name":"Titan Lifter","modelNumber":"XA123","manufacturingDate":"2015-05-12T00:00:00","age":10},{"id":2,"name":"Zephyr Mover","modelNumber":"YB456","manufacturingDate":"2018-07-23T00:00:00","age":6},{"id":3,"name":"Atlas Hauler","modelNumber":"ZC789","manufacturingDate":"2012-10-10T00:00:00","age":12},{"id":4,"name":"Cyclone Loader","modelNumber":"WD321","manufacturingDate":"2020-01-15T00:00:00","age":5},{"id":5,"name":"Phoenix Shifter","modelNumber":"VE654","manufacturingDate":"2017-03-30T00:00:00","age":8}],"error":null}
[13:42:55 INF] HTTP GET /api/forklifts/all responded 200 in 21.4144 ms
[13:42:58 INF] HTTP Request: GET /api/forklifts | Body: 
[13:42:58 INF] HTTP Response: 200 | Body: {"success":true,"data":{"items":[{"id":1,"name":"Titan Lifter","modelNumber":"XA123","manufacturingDate":"2015-05-12T00:00:00","age":10},{"id":2,"name":"Zephyr Mover","modelNumber":"YB456","manufacturingDate":"2018-07-23T00:00:00","age":6},{"id":3,"name":"Atlas Hauler","modelNumber":"ZC789","manufacturingDate":"2012-10-10T00:00:00","age":12}],"totalCount":5,"page":1,"pageSize":3,"totalPages":2},"error":null}
[13:42:58 INF] HTTP GET /api/forklifts responded 200 in 45.3734 ms
[13:42:58 INF] HTTP Request: GET /api/forklifts | Body: 
[13:42:58 INF] HTTP Response: 200 | Body: {"success":true,"data":{"items":[{"id":1,"name":"Titan Lifter","modelNumber":"XA123","manufacturingDate":"2015-05-12T00:00:00","age":10},{"id":2,"name":"Zephyr Mover","modelNumber":"YB456","manufacturingDate":"2018-07-23T00:00:00","age":6},{"id":3,"name":"Atlas Hauler","modelNumber":"ZC789","manufacturingDate":"2012-10-10T00:00:00","age":12}],"totalCount":5,"page":1,"pageSize":3,"totalPages":2},"error":null}
[13:42:58 INF] HTTP GET /api/forklifts responded 200 in 18.4770 ms
